{
  "showcase": [
    {
      "title": "Admin UI",
      "bodytext": "Manage fields, layouts and more directly in Sales Cloud without a single line of code.",
      "video": "/common/images/showcase.jpg"
    },
    {
      "title": "Reports",
      "bodytext": "Easily monitor subscription statuses and trends with standard reports. Plus, seamlessly integrate with Einstein Analytics to start generating user insights.",
      "video": "/common/images/showcase.jpg"
    }
  ]
}
