{
  "cards": [
    {
      "title": "Clicks. Not code.",
      "bodytext": "Make updates in seconds directly to preference center pages, with absolutely no code."
    },
    {
      "title": "Better (and easier!) segmentation",
      "bodytext": "Capture customer data at opt-in to improve personalization, engagement and ROI."
    },
    {
      "title": "Meet your customers on their terms",
      "bodytext": "Capture customer data at opt-in to improve personalization, engagement and ROI."
    }
  ]
}
